<?xml version="1.0" encoding="utf-8"?>
<!-- Generator: Adobe Illustrator 23.0.1, SVG Export Plug-In . SVG Version: 6.00 Build 0)  -->
<svg version="1.1" id="Layer_1" xmlns="http://www.w3.org/2000/svg" xmlns:xlink="http://www.w3.org/1999/xlink" x="0px" y="0px"
	 viewBox="0 0 153.6 153.6" style="enable-background:new 0 0 153.6 153.6;" xml:space="preserve">
<style type="text/css">
	.st0{enable-background:new    ;}
	.st1{fill:#006FBA;}
	.st2{fill:none;stroke:#FFFFFF;stroke-miterlimit:10;}
</style>
<title>logbook</title>
<g class="st0">
	<path class="st1" d="M39.9,107.1H42v9.9h4.8v1.8h-7V107.1z"/>
</g>
<g class="st0">
	<path class="st1" d="M58.1,112.9c0,3.9-2.4,6.2-5.6,6.2c-3.3,0-5.4-2.5-5.4-6c0-3.6,2.3-6.1,5.6-6.1
		C56.1,106.9,58.1,109.5,58.1,112.9z M49.4,113c0,2.4,1.2,4.3,3.3,4.3c2.1,0,3.2-1.9,3.2-4.4c0-2.2-1.1-4.3-3.2-4.3
		C50.5,108.7,49.4,110.6,49.4,113z"/>
	<path class="st1" d="M69.4,118.3c-0.7,0.3-2.2,0.7-3.8,0.7c-2,0-3.5-0.5-4.6-1.6c-1-1-1.7-2.5-1.6-4.3c0-3.7,2.6-6.1,6.5-6.1
		c1.4,0,2.6,0.3,3.1,0.6l-0.5,1.7c-0.6-0.3-1.4-0.5-2.7-0.5c-2.5,0-4.3,1.5-4.3,4.2c0,2.7,1.6,4.2,4.1,4.2c0.8,0,1.3-0.1,1.6-0.2
		v-2.9h-2.1v-1.7h4.1V118.3z"/>
	<path class="st1" d="M71.6,107.3c0.7-0.1,1.9-0.2,3.1-0.2c1.6,0,2.6,0.2,3.4,0.7c0.7,0.4,1.2,1.2,1.2,2.2c0,1.1-0.7,2.1-1.9,2.5v0
		c1.2,0.3,2.4,1.3,2.4,2.9c0,1-0.5,1.9-1.1,2.4c-0.8,0.7-2.2,1.1-4.3,1.1c-1.2,0-2.1-0.1-2.6-0.2V107.3z M73.7,111.9h1.1
		c1.5,0,2.3-0.7,2.3-1.7c0-1.1-0.8-1.6-2.2-1.6c-0.6,0-1,0-1.2,0.1V111.9z M73.7,117.3c0.3,0,0.6,0.1,1.1,0.1c1.4,0,2.6-0.5,2.6-2
		c0-1.4-1.2-1.9-2.7-1.9h-1.1V117.3z"/>
	<path class="st1" d="M92,112.9c0,3.9-2.4,6.2-5.6,6.2c-3.3,0-5.4-2.5-5.4-6c0-3.6,2.3-6.1,5.6-6.1C90,106.9,92,109.5,92,112.9z
		 M83.2,113c0,2.4,1.2,4.3,3.3,4.3c2.1,0,3.2-1.9,3.2-4.4c0-2.2-1.1-4.3-3.2-4.3C84.4,108.7,83.2,110.6,83.2,113z"/>
	<path class="st1" d="M104.2,112.9c0,3.9-2.4,6.2-5.6,6.2c-3.3,0-5.4-2.5-5.4-6c0-3.6,2.3-6.1,5.6-6.1
		C102.2,106.9,104.2,109.5,104.2,112.9z M95.5,113c0,2.4,1.2,4.3,3.3,4.3c2.1,0,3.2-1.9,3.2-4.4c0-2.2-1.1-4.3-3.2-4.3
		C96.6,108.7,95.5,110.6,95.5,113z"/>
	<path class="st1" d="M106.1,107.1h2.1v5.4h0.1c0.3-0.5,0.6-0.9,0.9-1.3l3.1-4.1h2.6l-4,5l4.3,6.7h-2.5l-3.3-5.4l-1,1.3v4.1h-2.1
		V107.1z"/>
</g>
<rect x="0.5" y="0.5" class="st2" width="152.6" height="152.6"/>
<path class="st1" d="M80.9,52.1c0.2,0.4,0.7,0.7,1.2,0.7c0.2,0,0.4,0,0.6-0.1c3.8-1.9,7.6-3.7,11.6-5.1c0.7-0.3,1-1,0.7-1.7
	c-0.2-0.6-0.9-0.9-1.5-0.8c-4.1,1.5-8.1,3.3-12,5.3C80.8,50.7,80.6,51.5,80.9,52.1z"/>
<path class="st1" d="M82.1,37.1c0.2,0,0.4-0.1,0.6-0.1c3.8-1.9,7.6-3.6,11.6-5.1c0.7-0.3,1-1,0.7-1.7c-0.2-0.6-0.9-0.9-1.5-0.8
	c-4.1,1.5-8.1,3.3-12,5.3c-0.6,0.3-0.9,1.1-0.6,1.8C81.1,36.9,81.6,37.1,82.1,37.1L82.1,37.1z"/>
<path class="st1" d="M113.5,34.5c-0.7,0-1.3,0.6-1.3,1.3v51c0,2.2-1.8,3.9-3.9,3.9H76.9v-3c3.8-1.4,7.8-2.1,11.8-2.2
	c6.5-0.1,12.9,0.8,19.2,2.5c0.7,0.2,1.4-0.1,1.7-0.8c0-0.1,0.1-0.3,0.1-0.4V29.3c0-0.6-0.4-1.1-1-1.3c0,0-1-0.2-2.8-0.5
	c-0.7-0.2-1.4,0.2-1.6,0.9c-0.2,0.7,0.2,1.4,0.9,1.6c0.1,0,0.1,0,0.2,0l1.7,0.3v54.7c-6-1.5-12.1-2.2-18.3-2.2
	c-4.4,0.1-8.8,1-13,2.5c-3.7-1.6-7.7-2.5-11.8-2.5c-6.6,0-13.2,0.8-19.6,2.2V30.3c6.4-1.5,13-2.3,19.6-2.3c3.6,0,7.1,0.8,10.5,2.1
	v51.4c0,0.7,0.6,1.3,1.3,1.3c0.2,0,0.5-0.1,0.7-0.2c0.1-0.1,13.1-7.8,24.6-11.6c0.5-0.2,0.9-0.7,0.9-1.2V16.2c0-0.4-0.2-0.8-0.6-1.1
	c-0.4-0.2-0.8-0.3-1.2-0.1c-7.3,2.9-14.4,6.5-21.1,10.6c-0.6,0.3-0.9,1.1-0.5,1.8c0.3,0.6,1.1,0.9,1.8,0.5c0.1,0,0.1-0.1,0.2-0.1
	c6-3.7,12.4-6.9,18.9-9.6v50.7c-7.7,2.8-15.1,6.3-22.2,10.4v-50c0-0.5-0.3-0.9-0.7-1.2c-3.9-1.8-8.1-2.7-12.4-2.7
	c-7.2,0-14.3,0.9-21.3,2.7c-0.6,0.2-1,0.7-1,1.3v57.5c0,0.7,0.6,1.3,1.3,1.3c0,0,0,0,0,0c0.1,0,0.2,0,0.4,0
	c6.7-1.7,13.6-2.6,20.5-2.6c3.6,0,7.1,0.8,10.5,2.1v3.1H42.9c-2.2,0-3.9-1.8-3.9-3.9v-51c0.1-0.7-0.5-1.4-1.2-1.4
	c-0.7-0.1-1.4,0.5-1.4,1.2c0,0.1,0,0.2,0,0.2v51c0,3.6,2.9,6.5,6.5,6.5h65.3c3.6,0,6.5-2.9,6.5-6.5v-51
	C114.8,35.1,114.2,34.5,113.5,34.5z"/>
<path class="st1" d="M80.9,44.2c0.2,0.4,0.7,0.7,1.2,0.7c0.2,0,0.4-0.1,0.6-0.1c3.8-1.9,7.6-3.6,11.6-5.1c0.7-0.3,1-1,0.7-1.7
	c-0.2-0.6-0.9-0.9-1.5-0.8c-4.1,1.5-8.1,3.3-12,5.3C80.8,42.8,80.6,43.6,80.9,44.2z"/>
<path class="st1" d="M80.9,59.9c0.2,0.4,0.7,0.7,1.2,0.7c0.2,0,0.4,0,0.6-0.1c3.8-1.9,7.6-3.6,11.6-5.1c0.7-0.3,1-1,0.7-1.7
	c-0.2-0.6-0.9-0.9-1.5-0.8c-4.1,1.5-8.1,3.3-12,5.3C80.9,58.5,80.6,59.3,80.9,59.9z"/>
<path class="st1" d="M68,39.2c-8.1-1.9-17.2,0.5-17.6,0.6c-0.7,0.2-1.1,0.9-0.9,1.6c0.1,0.6,0.7,1,1.3,1c0.1,0,0.2,0,0.3,0
	c0.1,0,8.9-2.4,16.4-0.6c0.7,0.2,1.4-0.3,1.6-1C69.1,40.1,68.7,39.4,68,39.2L68,39.2z"/>
<path class="st1" d="M68,47c-8.1-1.9-17.2,0.5-17.6,0.6c-0.7,0.2-1.1,0.9-0.9,1.6c0.1,0.6,0.7,1,1.3,1c0.1,0,0.2,0,0.3,0
	c0.1,0,8.9-2.4,16.4-0.6c0.7,0.2,1.4-0.3,1.6-1C69.1,47.9,68.7,47.2,68,47L68,47z"/>
<path class="st1" d="M80.9,67.8c0.2,0.4,0.7,0.7,1.2,0.7c0.2,0,0.4,0,0.6-0.1c3.8-1.9,7.6-3.7,11.6-5.1c0.7-0.3,1-1,0.7-1.7
	c-0.2-0.6-0.9-0.9-1.5-0.8c-4.1,1.5-8.1,3.3-12,5.3C80.9,66.4,80.6,67.1,80.9,67.8z"/>
<path class="st1" d="M68,54.8C60,53,50.8,55.4,50.4,55.5c-0.7,0.2-1.1,0.9-0.9,1.6c0.2,0.6,0.7,0.9,1.2,1c0.1,0,0.2,0,0.3,0
	c0.1,0,8.9-2.4,16.4-0.6c0.7,0.2,1.4-0.3,1.6-1C69.1,55.7,68.7,55.1,68,54.8L68,54.8z"/>
<path class="st1" d="M68,70.5C60,68.6,50.8,71,50.4,71.2c-0.7,0.2-1.1,0.9-0.9,1.6c0.2,0.6,0.7,0.9,1.2,1c0.1,0,0.2,0,0.3,0
	c0.1,0,8.9-2.4,16.4-0.6c0.7,0.2,1.4-0.3,1.6-1C69.1,71.4,68.7,70.7,68,70.5L68,70.5z"/>
<path class="st1" d="M68,62.7c-8.1-1.9-17.2,0.5-17.6,0.6c-0.7,0.2-1.1,0.9-0.9,1.6c0.2,0.6,0.7,0.9,1.2,1c0.1,0,0.2,0,0.3,0
	c0.1,0,8.9-2.4,16.4-0.6c0.7,0.2,1.4-0.3,1.6-1C69.1,63.5,68.7,62.9,68,62.7L68,62.7z"/>
</svg>
